1010_000011_000000	// mov r3, r0
1001_000011_110010	// mov r3, 110010
1100_000001_000010	// mov r1, [r2] -- load data from mem[R2data] into r1

0001_000000_000100	// inc r4
0101_000100_000101	// add r4, r5
0110_000100_000101	// sub r4, r5
0111_000010_000001	// xor r2, r1
1101_000100_000011	// sadd r4, r3

1011_000000_000001	// mov [r0], r1 -- put data to mem[R0data] from r1
1000_000001_000010	// cmp r1, r2
0011_000000_111111	// jne 63
0100_000000_111111	// je 63
0010_000000_111111	// jmp 63

1100_1100_1100_1100
1010_1000_1111_0010
1010_1000_1111_0010
1010_1000_1111_0011
@001F 0010_000000_100001
0000_000000_000000
1010_000011_000000
1001_000011_110010
1100_000001_000010
0001_000000_000100
0101_000100_000101
0110_000100_000101
0111_000010_000001
1101_000100_000011
1011_000000_000001
1000_000001_000010
0011_000000_111111
0100_000000_111111
0010_000000_111111

===============================================================================================

@001F 1001_000000_000000 // mov r0, 0
1001_000001_001010 // mov r1, 10
1001_000010_010100 // mov r2, 20
1011_000001_000000 // mov [r1], r0
0001_000000_000000	// inc r0
0001_000000_000001	// inc r1
1000_000001_000010	// cmp r1, r2
0011_000000_100001	// jne 34










